<?xml version="1.0" encoding="utf-8"?>
<!-- Generator: Adobe Illustrator 20.0.0, SVG Export Plug-In . SVG Version: 6.00 Build 0)  -->
<svg version="1.1"
	 id="svg2335" inkscape:version="0.44" sodipodi:docbase="C:\Documents and Settings\Omegatron\My Documents\Wikipedia\Waveforms\Sine wave" sodipodi:docname="sine wave.svg" sodipodi:version="0.32" xmlns:cc="http://web.resource.org/cc/" xmlns:dc="http://purl.org/dc/elements/1.1/" xmlns:inkscape="http://www.inkscape.org/namespaces/inkscape" xmlns:rdf="http://www.w3.org/1999/02/22-rdf-syntax-ns#" xmlns:sodipodi="http://sodipodi.sourceforge.net/DTD/sodipodi-0.dtd" xmlns:svg="http://www.w3.org/2000/svg"
	 xmlns="http://www.w3.org/2000/svg" xmlns:xlink="http://www.w3.org/1999/xlink" x="0px" y="0px" viewBox="0 0 1000 750"
	 style="enable-background:new 0 0 1000 750;" xml:space="preserve">
<style type="text/css">
	.st0{fill:#A1CD73;}
</style>
<g id="g2485_2_">
	<g>
		<g>
			<path class="st0" d="M0,604.3l12.9,6.4c3.7,1.9,9.7,4.9,13.5,6.7l2.8,1.4c3.7,1.9,9.6,4.9,13.1,6.8l1.8,1
				c3.6,1.9,9.2,4.9,12.8,6.8l1.8,1c3.6,1.9,8.1,4.3,10.2,5.4c7.1,3.6,14.8,7.2,22.9,10.7c2.3,1,7.3,3.3,11.3,5.1h0.2
				c2.8,1.4,6.6,3.1,11.2,5c9.4,3.9,17,6.4,26.3,9.3c3.9,1.2,8.2,2.6,14.1,4.3c7.8,2.2,14.5,3.8,19.8,5c3.3,0.7,6.7,1.5,10,2.2
				c1.1,0.3,2.2,0.5,3.3,0.8c1.7,0.4,3.4,0.8,5.1,1.1c2.6,0.4,5.1,0.9,7.7,1.3c2.6,0.5,5.3,1,8.1,1.4l5.2,0.8c3.4,0.5,7,1,10.5,1.3
				l2.6,0.3c4.4,0.4,8.9,0.8,13.5,1c5,0.3,10.2,0.4,15.4,0.4h0.6c5.2,0,10.4-0.1,15.4-0.4c4.7-0.2,9.1-0.6,13.5-1l2.6-0.3
				c3.7-0.4,7.3-0.8,10.5-1.3l5.2-0.8c2.9-0.4,5.5-0.9,8.1-1.4l3.6-0.7c5.8-1.2,11.3-2.5,16.7-3.8c4.5-1.1,8.8-2.3,12.6-3.5
				c4.7-1.4,12.3-3.7,16.9-5.1c5.2-1.6,10.1-3.2,14.6-4.9l4.9-1.9c2.1-0.8,4.1-1.6,5.8-2.4l4.2-1.8c4.2-1.8,10.9-4.8,14.9-6.6h0.2
				c4.1-1.8,7.3-3.3,7.3-3.3c10.9-4.7,20.9-9.4,30.5-14.3c0.2-0.1,3.2-1.7,6.6-3.6l1.8-1c3.6-1.9,9.2-4.9,12.8-6.8l1.8-1
				c3.6-1.9,9.4-4.9,13.1-6.8l2.8-1.4c3.7-1.9,9.4-4.9,12.8-6.8l2.3-1.3c3.4-1.9,8.9-5,12.3-6.9l2.3-1.3c3.4-1.9,9.1-5,12.8-6.8
				l2.8-1.4c3.7-1.9,9.6-4.9,13.1-6.8l1.8-1c3.6-1.9,9.2-4.9,12.8-6.8l1.8-1c3.6-1.9,6.6-3.6,7.1-3.7c9.2-4.7,19.1-9.3,29.7-13.9
				c0.3-0.1,3.7-1.7,7.6-3.5h0.2c4.1-1.8,10.7-4.8,14.9-6.6l2.8-1.2c2.8-1.2,5.7-2.4,8.8-3.6c6.6-2.5,13.9-5,21.7-7.3
				c2.4-0.7,8.8-2.6,14.1-4.3l2.9-0.9c1.3-0.4,2.6-0.8,4.1-1.1l9.9-2.5c1.6-0.4,3.4-0.8,5.3-1.2l9.6-2c2.6-0.5,5.3-1,8.1-1.4
				l5.2-0.8c3.4-0.5,7-1,10.5-1.3l2.6-0.3c4.4-0.4,8.9-0.8,13.5-1c5-0.3,10.2-0.4,15.4-0.4h0.6c5.2,0,10.4,0.1,15.4,0.4
				c4.7,0.2,9.1,0.6,13.5,1l2.6,0.3c3.7,0.4,7.3,0.8,10.5,1.3l5.2,0.8c2.9,0.4,5.5,0.9,8.1,1.4l9.6,2c1.8,0.4,3.6,0.8,5.3,1.2
				l9.9,2.5c1.5,0.4,2.8,0.7,4.1,1.1l2.9,0.9c5.3,1.6,14.1,4.3,19.6,5.9l3.9,1.1c1.6,0.5,3.2,1,4.5,1.6c8.3,3.1,16.2,6.4,23.8,9.6
				c1.8,0.8,6.5,2.9,10.5,4.7h0.2c4.1,1.8,8.8,3.9,10.5,4.7c8.6,3.8,16.9,7.6,24.5,11.4c1.8,0.9,6,3.1,9.6,5l1.8,1
				c3.6,1.9,9.2,4.9,12.8,6.8l1.8,1c3.6,1.9,9.4,4.9,13.1,6.8l2.8,1.4c3.7,1.9,8.9,4.6,11.5,6.1c2.8,1.5,4.7,2.6,9.5,5.3
				c-0.1,48.7,0.1,97.5,0,146.1H0V604.3z"/>
		</g>
	</g>
</g>
</svg>
