<?xml version="1.0" encoding="utf-8"?>
<!-- Generator: Adobe Illustrator 20.0.0, SVG Export Plug-In . SVG Version: 6.00 Build 0)  -->
<svg version="1.1"
	 id="svg2335" inkscape:version="0.44" sodipodi:docbase="C:\Documents and Settings\Omegatron\My Documents\Wikipedia\Waveforms\Sine wave" sodipodi:docname="sine wave.svg" sodipodi:version="0.32" xmlns:cc="http://web.resource.org/cc/" xmlns:dc="http://purl.org/dc/elements/1.1/" xmlns:inkscape="http://www.inkscape.org/namespaces/inkscape" xmlns:rdf="http://www.w3.org/1999/02/22-rdf-syntax-ns#" xmlns:sodipodi="http://sodipodi.sourceforge.net/DTD/sodipodi-0.dtd" xmlns:svg="http://www.w3.org/2000/svg"
	 xmlns="http://www.w3.org/2000/svg" xmlns:xlink="http://www.w3.org/1999/xlink" x="0px" y="0px" viewBox="0 0 1000 750"
	 style="enable-background:new 0 0 1000 750;" xml:space="preserve">
<style type="text/css">
	.st0{fill:#006064;}
</style>
<g id="g2485_1_">
	<g>
		<g>
			<path class="st0" d="M0,352.5l11.7,11.1c3.7,3.6,9.7,9.3,13.5,12.8L28,379c3.7,3.6,9.6,9.3,13.1,13l1.8,1.9
				c3.6,3.6,9.2,9.3,12.8,13l1.8,1.9c3.6,3.6,8.1,8.2,10.2,10.3c7.1,6.9,14.8,13.7,22.9,20.4c2.3,1.9,7.3,6.3,11.3,9.7h0.2
				c2.8,2.7,6.6,5.9,11.2,9.5c9.4,7.4,17,12.2,26.3,17.7c3.9,2.3,8.2,5,14.1,8.2c7.8,4.2,14.5,7.2,19.8,9.5c3.3,1.3,6.7,2.9,10,4.2
				c1.1,0.6,2.2,1,3.3,1.5c1.7,0.8,3.4,1.5,5.1,2.1c2.6,0.8,5.1,1.7,7.7,2.5c2.6,1,5.3,1.9,8.1,2.7l5.2,1.5c3.4,1,7,1.9,10.5,2.5
				l2.6,0.6c4.4,0.8,8.9,1.5,13.5,1.9c5,0.6,10.2,0.8,15.4,0.8h0.6c5.2,0,10.4-0.2,15.4-0.8c4.7-0.4,9.1-1.1,13.5-1.9l2.6-0.6
				c3.7-0.8,7.3-1.5,10.5-2.5l5.2-1.5c2.9-0.8,5.5-1.7,8.1-2.7l3.6-1.3c5.8-2.3,11.3-4.8,16.7-7.2c4.5-2.1,8.8-4.4,12.6-6.7
				c4.7-2.7,12.3-7.1,16.9-9.7c5.2-3,10.1-6.1,14.6-9.3l4.9-3.6c2.1-1.5,4.1-3,5.8-4.6l4.2-3.4c4.2-3.4,10.9-9.1,14.9-12.6h0.2
				c4.1-3.4,7.3-6.3,7.3-6.3c10.9-9,20.9-17.9,30.5-27.3c0.2-0.2,3.2-3.2,6.6-6.9l1.8-1.9c3.6-3.6,9.2-9.3,12.8-13l1.8-1.9
				c3.6-3.6,9.4-9.3,13.1-13l2.8-2.7c3.7-3.6,9.4-9.3,12.8-13l2.3-2.5c3.4-3.6,8.9-9.5,12.3-13.2l2.3-2.5c3.4-3.6,9.1-9.5,12.8-13
				l2.8-2.7c3.7-3.6,9.6-9.3,13.1-13l1.8-1.9c3.6-3.6,9.2-9.3,12.8-13l1.8-1.9c3.6-3.6,6.6-6.9,7.1-7.1c9.2-9,19.1-17.7,29.7-26.5
				c0.3-0.2,3.7-3.2,7.6-6.7h0.2c4.1-3.4,10.7-9.1,14.9-12.6l2.8-2.3c2.8-2.3,5.7-4.6,8.8-6.9c6.6-4.8,13.9-9.5,21.7-13.9
				c2.4-1.3,8.8-5,14.1-8.2l2.9-1.7c1.3-0.8,2.6-1.5,4.1-2.1l9.9-4.8c1.6-0.8,3.4-1.5,5.3-2.3l9.6-3.8c2.6-1,5.3-1.9,8.1-2.7
				l5.2-1.5c3.4-1,7-1.9,10.5-2.5l2.6-0.6c4.4-0.8,8.9-1.5,13.5-1.9c5-0.6,10.2-0.8,15.4-0.8h0.6c5.2,0,10.4,0.2,15.4,0.8
				c4.7,0.4,9.1,1.1,13.5,1.9l2.6,0.6c3.7,0.8,7.3,1.5,10.5,2.5l5.2,1.5c2.9,0.8,5.5,1.7,8.1,2.7l9.6,3.8c1.8,0.8,3.6,1.5,5.3,2.3
				l9.9,4.8c1.5,0.8,2.8,1.3,4.1,2.1l2.9,1.7c5.3,3,14.1,8.2,19.6,11.2l3.9,2.1c1.6,1,3.2,1.9,4.5,3c8.3,5.9,16.2,12.2,23.8,18.3
				c1.8,1.5,6.5,5.5,10.5,9h0.2c4.1,3.4,8.8,7.4,10.5,9c8.6,7.2,16.9,14.5,24.5,21.7c1.8,1.7,6,5.9,9.6,9.5l1.8,1.9
				c3.6,3.6,9.2,9.3,12.8,13l1.8,1.9c3.6,3.6,9.4,9.3,13.1,13l2.8,2.7c3.7,3.6,8.9,8.8,11.5,11.6c2.8,2.9,5.9,6.3,10.7,11.4V750H0
				V352.5z"/>
		</g>
	</g>
</g>
</svg>
